0	3	0
1	4	0
2	0	0
2	7	0
3	2	0
3	5	0
4	1	0
4	6	0
5	0	1
5	1	1
5	2	1
5	3	1
5	5	1
5	6	1
5	7	1
6	4	7
7	3	7
8	0	7
8	7	7
9	2	7
9	5	7
10	1	7
11	0	6
11	1	6
11	2	6
11	3	6
11	4	6
11	5	6
11	6	6
11	7	6
5	4	3
10	5	5
